dep_name,Population,num_dep,region_name
Corse-du-Sud,159894,2A,Corse
Haute-Corse,177902,2B,Corse
Ain,649654,1,Auvergne-Rhône-Alpes
Aisne,534286,2,Hauts-de-France
Allier,338978,3,Auvergne-Rhône-Alpes
Alpes-de-Haute-Provence,161664,4,Provence-Alpes-Côtes-d'Azur
Hautes-Alpes,141576,5,Provence-Alpes-Côtes-d'Azur
Alpes-Maritimes,1080614,6,Provence-Alpes-Côtes-d'Azur
Ardèche,328557,7,Auvergne-Rhône-Alpes
Ardennes,271339,8,Grand Est
Ariège,152321,9,Occitanie
Aube,311623,10,Grand Est
Aude,370245,11,Occitanie
Aveyron,281082,12,Occitanie
Bouches-du-Rhône,2043941,13,Provence-Alpes-Côtes-d'Azur
Calvados,695818,14,Normandie
Cantal,144240,15,Auvergne-Rhône-Alpes
Charente,351971,16,Nouvelle-Aquitaine
Charente-Maritime,648183,17,Nouvelle-Aquitaine
Cher,304794,18,Centre-Val de Loire
Corrèze,241891,19,Nouvelle-Aquitaine
Côte-d'Or,536837,21,Bourgogne-Franche-Comté
Côtes-d'Armor,598715,22,Bretagne
Creuse,118711,23,Nouvelle-Aquitaine
Dordogne,412629,24,Nouvelle-Aquitaine
Doubs,540890,25,Bourgogne-Franche-Comté
Drôme,516172,26,Auvergne-Rhône-Alpes
Eure,610152,27,Normandie
Eure-et-Loir,433983,28,Centre-Val de Loire
Finistère,910502,29,Bretagne
Gard,748236,30,Occitanie
Haute-Garonne,1388393,31,Occitanie
Gers,191332,32,Occitanie
Gironde,1610829,33,Nouvelle-Aquitaine
Hérault,1160043,34,Occitanie
Ille-et-Vilaine,1073883,35,Bretagne
Indre,218508,36,Centre-Val de Loire
Indre-et-Loire,611139,37,Centre-Val de Loire
Isère,1272816,38,Auvergne-Rhône-Alpes
Jura,259393,39,Bourgogne-Franche-Comté
Landes,411757,40,Nouvelle-Aquitaine
Loir-et-Cher,332601,41,Centre-Val de Loire
Loire,762495,42,Auvergne-Rhône-Alpes
Haute-Loire,227444,43,Auvergne-Rhône-Alpes
Loire-Atlantique,1413341,44,Pays de la Loire
Loiret,681497,45,Centre-Val de Loire
Lot,171463,46,Occitanie
Lot-et-Garonne,333230,47,Nouvelle-Aquitaine
Lozère,75463,48,Occitanie
Maine-et-Loire,820655,49,Pays de la Loire
Manche,496972,50,Normandie
Marne,573253,51,Grand Est
Haute-Marne,175102,52,Grand Est
Mayenne,306323,53,Pays de la Loire
Meurthe-et-Moselle,733085,54,Grand Est
Meuse,187372,55,Grand Est
Morbihan,753543,56,Bretagne
Moselle,1038558,57,Grand Est
Nièvre,205942,58,Bourgogne-Franche-Comté
Nord,2613874,59,Hauts-de-France
Oise,829839,60,Hauts-de-France
Orne,282516,61,Normandie
Pas-de-Calais,1475142,62,Hauts-de-France
Puy-de-Dôme,655185,63,Auvergne-Rhône-Alpes
Pyrénées-Atlantiques,677189,64,Nouvelle-Aquitaine
Hautes-Pyrénées,227492,65,Occitanie
Pyrénées-Orientales,482131,66,Occitanie
Bas-Rhin,1125279,67,Grand Est
Haut-Rhin,767606,68,Grand Est
Rhône,1878095,69,Auvergne-Rhône-Alpes
Haute-Saône,234316,70,Bourgogne-Franche-Comté
Saône-et-Loire,553129,71,Bourgogne-Franche-Comté
Sarthe,566901,72,Pays de la Loire
Savoie,433755,73,Auvergne-Rhône-Alpes
Haute-Savoie,829668,74,Auvergne-Rhône-Alpes
Paris,2168462,75,Île-de-France
Seine-Maritime,1257009,76,Normandie
Seine-et-Marne,1422736,77,Île-de-France
Yvelines,1438440,78,Île-de-France
Deux-Sèvres,375652,79,Nouvelle-Aquitaine
Somme,570195,80,Hauts-de-France
Tarn,392407,81,Occitanie
Tarn-et-Garonne,262582,82,Occitanie
Var,1071832,83,Provence-Alpes-Côtes-d'Azur
Vaucluse,566096,84,Provence-Alpes-Côtes-d'Azur
Vendée,680191,85,Pays de la Loire
Vienne,438136,86,Nouvelle-Aquitaine
Haute-Vienne,374158,87,Nouvelle-Aquitaine
Vosges,364873,88,Grand Est
Yonne,338303,89,Bourgogne-Franche-Comté
Territoire de Belfort,144479,90,Bourgogne-Franche-Comté
Essonne,1313729,91,Île-de-France
Hauts-de-Seine,1612788,92,Île-de-France
Seine-Saint-Denis,1646105,93,Île-de-France
Val-de-Marne,1401228,94,Île-de-France
Val-d'Oise,1242746,95,Île-de-France
Guadeloupe,390704,971,Guadeloupe
Martinique,371246,972,Martinique
Guyane,281612,973,Guyane
La Réunion,865826,974,La Réunion
Mayotte,259154,976,Mayotte
